{
  "cols": 13,
  "rows": 13,
  "cells": [
    "S",
    "A",
    "S",
    "A",
    "K",
    "",
    "",
    "",
    "",
    "",
    "J",
    "I",
    "N",
    "",
    "",
    "",
    "",
    "U",
    "K",
    "R",
    "A",
    "I",
    "N",
    "A",
    "",
    "",
    "",
    "",
    "",
    "",
    "L",
    "",
    "",
    "",
    "",
    "",
    "W",
    "",
    "",
    "",
    "P",
    "A",
    "D",
    "A",
    "N",
    "G",
    "",
    "A",
    "R",
    "A",
    "B",
    "",
    "",
    "A",
    "",
    "A",
    "",
    "",
    "",
    "",
    "",
    "",
    "",
    "",
    "",
    "",
    "L",
    "",
    "D",
    "",
    "B",
    "A",
    "N",
    "J",
    "A",
    "R",
    "",
    "",
    "",
    "E",
    "",
    "U",
    "S",
    "A",
    "",
    "",
    "",
    "",
    "",
    "",
    "",
    "",
    "M",
    "",
    "",
    "",
    "L",
    "A",
    "M",
    "P",
    "U",
    "N",
    "G",
    "",
    "A",
    "B",
    "A",
    "D",
    "",
    "I",
    "",
    "",
    "A",
    "",
    "",
    "R",
    "I",
    "",
    "A",
    "",
    "",
    "",
    "",
    "",
    "",
    "P",
    "A",
    "L",
    "U",
    "",
    "U",
    "N",
    "T",
    "A",
    "",
    "",
    "",
    "",
    "U",
    "",
    "",
    "P",
    "",
    "",
    "G",
    "",
    "",
    "",
    "T",
    "O",
    "R",
    "A",
    "J",
    "A",
    "",
    "",
    "",
    "",
    "",
    "",
    "",
    "",
    "",
    "",
    "",
    "",
    "",
    "",
    ""
  ],
  "words": [
      "0,1,2,3,4",
      "4,17,30,43",
      "40,41,42,43,44,45",
      "40,53,66,79,92,105,118,131,144",
      "130,131,132,133",
      "42,55,68,81",
      "81,82,83",
      "70,83,96,109",
      "96,97,98,99,100,101,102",
      "99,112,125,138,151",
      "17,18,19,20,21,22,23",
      "10,23,36,49",
      "47,48,49,50",
      "10,11,12",
      "70,71,72,73,74,75",
      "125,126,127,128",
      "102,115,128,141",
      "115,116",
      "148,149,150,151,152,153",
      "104,105,106,107"
  ],
  "questions": [
    "SUKU LOMBOK",
    "PENDIDIKAN YANG DOLAKSANAKAN DALAM SISTEM TERBUKA",
    "SUKU MINANG",
    "IBU KOTA SUMATRA SELATAN",
    "BINATANG YANG BERASALA DARI ARAB SAUDI",
    "KUBUS KECIL BERISI ENAM",
    "AMERIKA SERIKAT",
    "DAERAH MAYORITAS HINDU",
    "DAERAH YANG BERADAT SAIBATIN",
    "SUKU YANG MEMILIKI SUB SUKU",
    "NEGARA EROPA YANG BERBATASAN DENGAN ASIA",
    "SUKU TERBESAR DI INDONESIA",
    "SUKU YANG MEMILIKI DAERAH TIMUR TENGAH",
    "MAKHLUK YANG DICIPTAKAN DARI API",
    "SUKU KALIMANTAN",
    "IBU KOTA PROVINSI SULAWESI TENGAH",
    "KELOMPOK",
    "REPUBLIK INDONESIA",
    "SUKU YANG BERAADA DI DAERAH SULAWESI SELATAN",
    "MASA SERATUS TAHUN"
  ]
}