		{
		  "cols": 13,
		  "rows": 13,
		  "cells": [
			"P",
			"I",
			"N",
			"",
			"",
			"",
			"",
			"",
			"R",
			"A",
			"P",
			"U",
			"H",
			"",
			"S",
			"",
			"",
			"W",
			"H",
			"O",
			"",
			"A",
			"",
			"",
			"",
			"",
			"S",
			"U",
			"K",
			"M",
			"A",
			"",
			"",
			"U",
			"B",
			"I",
			"",
			"",
			"",
			"",
			"",
			"O",
			"",
			"N",
			"",
			"",
			"",
			"U",
			"",
			"",
			"",
			"",
			"",
			"",
			"M",
			"",
			"G",
			"O",
			"R",
			"E",
			"N",
			"G",
			"",
			"",
			"",
			"",
			"S",
			"E",
			"R",
			"I",
			"",
			"",
			"K",
			"",
			"U",
			"",
			"T",
			"",
			"",
			"",
			"D",
			"",
			"",
			"",
			"",
			"A",
			"",
			"B",
			"",
			"O",
			"",
			"",
			"W",
			"I",
			"S",
			"N",
			"U",
			"",
			"",
			"",
			"U",
			"",
			"P",
			"",
			"",
			"",
			"",
			"",
			"",
			"",
			"",
			"C",
			"U",
			"K",
			"A",
			"I",
			"",
			"",
			"",
			"",
			"",
			"",
			"",
			"",
			"",
			"F",
			"",
			"",
			"",
			"",
			"",
			"",
			"",
			"",
			"",
			"",
			"K",
			"I",
			"O",
			"S",
			"",
			"",
			"",
			"",
			"",
			"",
			"",
			"",
			"",
			"",
			"D",
			"",
			"",
			"",
			"",
			"",
			"",
			"",
			"",
			"",
			"",
			"",
			"G",
			"E",
			"N",
			"E",
			"T",
			"I",
			"K"
		  ],
		  "words": [
			"0,1,2",
			"1,14,27",
			"26,27,28,29,30",
			"28,41,54,67,80,93",
			"66,67,68,69",
			"92,93,94,95,96",
			"94,107,120,133",
			"17,18,19",
			"56,67,68,59,60,61",
			"59,72,85",
			"8,21,34,47,60",
			"33,34,35",
			"61,74,87,100,113",
			"111,112,113,114,115",
			"112,125,138",
			"136,137,138,139",
			"137,150,163",
			"162,163,164,165,166,167,168",
			"76,89,102,115",
			"8,9,10,11,12"
		  ],
		  "questions": [
            "KODE RAHASIA",
            "DESUS DESUS",
            "JIWA SANSEKERTA",
            "SANDIWARA KELUCUAN",
            "TIDAK MENANG TIDAK KALAH",
            "NAMA DEWA HINDU",
            "TIMUN YANG BANYAK DIJUAL HARI RAMADHAN",
            "ORGANISASI KESEHATAN DUNIA",
            "MEMASAK HINGGA GARING",
            "PERTAMA",
            "BUTA SENJA",
            "KETELA",
            "BANGUNAN KECIL YANG ADA DI SAWAH",
            "BAE BARANG IMPORT",
            "PIRING TERBANG",
            "TEMPAT BERJUALAN",
            "GAGASAN",
            "FAKTOR KETURUNAN",
            "TUDUNG KEPALA",
            "MUDAH PATAH"

		  ]
		}