	{
	  "cols": 13,
	  "rows": 13,
	  "cells": [
		"A",
		"",
		"B",
		"",
		"",
		"",
		"",
		"I",
		"",
		"",
		"",
		"",
		"",
		"L",
		"",
		"U",
		"",
		"",
		"K",
		"E",
		"P",
		"I",
		"T",
		"I",
		"N",
		"G",
		"U",
		"",
		"K",
		"",
		"",
		"A",
		"",
		"A",
		"",
		"",
		"T",
		"",
		"U",
		"M",
		"E",
		"T",
		"E",
		"",
		"R",
		"",
		"R",
		"E",
		"M",
		"A",
		"J",
		"A",
		"N",
		"",
		"I",
		"",
		"",
		"A",
		"",
		"",
		"",
		"",
		"L",
		"",
		"",
		"U",
		"",
		"",
		"",
		"",
		"T",
		"",
		"H",
		"A",
		"S",
		"I",
		"L",
		"",
		"S",
		"A",
		"N",
		"G",
		"K",
		"E",
		"T",
		"A",
		"",
		"",
		"A",
		"",
		"",
		"",
		"",
		"",
		"E",
		"",
		"",
		"",
		"D",
		"",
		"",
		"",
		"",
		"",
		"",
		"",
		"",
		"L",
		"",
		"",
		"",
		"I",
		"N",
		"D",
		"U",
		"N",
		"G",
		"G",
		"O",
		"K",
		"I",
		"L",
		"",
		"",
		"R",
		"",
		"",
		"D",
		"",
		"U",
		"",
		"",
		"",
		"G",
		"",
		"",
		"S",
		"I",
		"G",
		"M",
		"A",
		"",
		"D",
		"N",
		"O",
		"T",
		"A",
		"",
		"",
		"",
		"N",
		"",
		"",
		"N",
		"",
		"E",
		"",
		"",
		"",
		"",
		"",
		"",
		"",
		"",
		"",
		"",
		"G",
		"D",
		"G"
	  ],
	  "words": [
		"0,13,26,39,52,65,78",
		"39,40,41,42",
		"2,15,28,41,54",
		"78,79,80,81,82,83,84,85",
		"72,85,98,111,124,137,150",
		"111,112,113,114,115,116",
		"136,137,138,139,140",
		"114,127,140,153,166",
		"116,129,142,155,168",
		"18,31,44,57,70,83",
		"18,19,20,21,22,23,24,25",
		"7,20,33,46",
		"46,47,48,49,50,51",
		"25,38,51",
		"23,36,49,62,75,88",
        "72,73,74,75,76",
        "81,94,107,120,133,146",
        "117,118,119,120,121",
        "143,144,145,146",
        "166,167,168"
	  ],
	  "questions": [
        "SESEORANG YANG SUDAH LULUS KULIAH",
        "NAMA BIJI JAMBU MONYET",
        "EVIDENCE",
        "PERTENGKARAN",
        "SEBUTAN UNTUK YANG MENGHADIRI ACAR",
        "INDUK",
        "LAMBANG Ʃ",
        "NAMA HEWAN YANG HIDUP DILAUT",
        "MAKANAN YANG TERBUAT DARI NANGKA MUDA YANG DIMASAK DENGAN SANTAN",
        "ILMU BELA DIRI",
        "BINATANG KRUSTASEA BERKAKI SEPULUH",
        "SAUDARA DARI SUAMI KK SAYA",
        "ABG",
        "TEMPAT TINGGAL KELELAWAR",
        "PIZZA MAKANAN YANG BERASAL DARI",
        "USAHA TIDAK MENGHIANATI",
        "NAMA BALSEM",
        "LUCU (BAHASA G4UL)",
        "BUKTI TRANSAKSI",
        "GOOGLE DEVELOPER GRUP"

	  ]
	}