	{
	  "cols": 13,
	  "rows": 13,
	  "cells": [
		"B",
		"A",
		"J",
		"A",
		"K",
		"",
		"",
		"",
		"",
		"",
		"",
		"",
		"",
		"",
		"",
		"I",
		"",
		"A",
		"",
		"",
		"",
		"J",
		"",
		"A",
		"",
		"",
		"",
		"P",
		"R",
		"",
		"S",
		"",
		"",
		"",
		"U",
		"",
		"M",
		"",
		"K",
		"",
		"",
		"A",
		"",
		"E",
		"",
		"",
		"",
		"N",
		"",
		"O",
		"",
		"A",
		"T",
		"I",
		"N",
		"",
		"T",
		"",
		"",
		"B",
		"I",
		"S",
		"N",
		"I",
		"S",
		"",
		"R",
		"",
		"",
		"",
		"",
		"",
		"",
		"O",
		"",
		"G",
		"",
		"T",
		"M",
		"O",
		"T",
		"I",
		"V",
		"A",
		"T",
		"O",
		"R",
		"",
		"",
		"",
		"U",
		"",
		"N",
		"",
		"",
		"",
		"",
		"",
		"",
		"",
		"",
		"C",
		"",
		"R",
		"A",
		"M",
		"I",
		"N",
		"G",
		"",
		"J",
		"A",
		"S",
		"M",
		"A",
		"N",
		"I",
		"",
		"A",
		"",
		"I",
		"",
		"",
		"I",
		"",
		"",
		"",
		"C",
		"",
		"",
		"",
		"N",
		"",
		"N",
		"",
		"",
		"N",
		"",
		"Y",
		"A",
		"I",
		"T",
		"U",
		"",
		"",
		"",
		"J",
		"",
		"",
		"A",
		"",
		"",
		"",
		"N",
		"",
		"I",
		"S",
		"A",
		"L",
		"A",
		"K",
		"",
		"K",
		"",
		"G",
		"I",
		"G",
		"I",
		""
	  ],
	  "words": [
		"0,1,2,3,4",
		"2,15,28,41,54",
		"4,17,30,43,56",
		"27,28",
		"52,53,54",
		"53,66,79,92,105,118,131",
		"104,105,106,107,108",
		"78,79,80,81,82,83,84,85,86",
		"21,34,47,60,73,86",
		"59,60,61,62,63,64",
		"23,36,49,62,75",
		"38,51,64,77,90,103,116",
		"110,111,112,113,114,115,116",
		"101,114,127,140,153,166",
		"138,139,140,141,142",
		"142,155",
		"164,165,166,167",
		"110,123,136,149,162",
		"107,120,133,146,159",
		"156,157,158,159,160"
	  ],
	  "questions": [
        "DUPLICATE ILEGAL",
        "MALAYSIA TERKENAL DENGAN NEGRI",
        "CD PLAYER",
        "TUGAS RUMAH (SISWA)",
        "UNIVERSITAS ISLAM NEGERI",
        "SUPERHERO",
        "NAMA ARTIS",
        "TOKOH PEMBERI MOTIVASI",
        "PENCARIAN BAKAT INDONESIA IDOL 2018 MAX 15 TAHUN",
        "BERDAGANG",
        "DI ANTARA (BAHASA INGGRIS)",
        "NAMA BURUNG INDONESIA TIMUR",
        "RAGA",
        "NAMA HEWAN HIDUP DITANAH",
        "KATA LAIN DARI (ADALAH)",
        "UNIVERSITAS INDONESIA",
        "ALAT UNTUK MENGUNYAH MAKANAN",
        "GANAS (LAWAN KATA)",
        "MEREK MOTOR",
        "NAMA BUAH YANG BERSISIK"

	  ]
	}