{
  "cols": 13,
  "rows": 13,
  "cells": [
    "R",
    "O",
    "B",
    "O",
    "H",
    "",
    "J",
    "",
    "",
    "",
    "",
    "",
    "",
    "",
    "",
    "",
    "",
    "U",
    "S",
    "A",
    "I",
    "",
    "",
    "",
    "",
    "",
    "I",
    "M",
    "P",
    "O",
    "R",
    "",
    "L",
    "",
    "",
    "",
    "",
    "",
    "",
    "N",
    "",
    "",
    "",
    "U",
    "",
    "A",
    "",
    "",
    "",
    "V",
    "I",
    "P",
    "G",
    "",
    "I",
    "M",
    "F",
    "",
    "N",
    "",
    "",
    "J",
    "",
    "",
    "O",
    "G",
    "",
    "K",
    "",
    "",
    "",
    "G",
    "E",
    "N",
    "E",
    "R",
    "I",
    "K",
    "R",
    "",
    "L",
    "",
    "",
    "",
    "",
    "",
    "",
    "D",
    "",
    "",
    "E",
    "I",
    "",
    "I",
    "",
    "",
    "D",
    "",
    "A",
    "",
    "D",
    "",
    "",
    "R",
    "S",
    "U",
    "M",
    "",
    "S",
    "A",
    "N",
    "G",
    "K",
    "A",
    "",
    "P",
    "",
    "",
    "",
    "",
    "",
    "",
    "I",
    "",
    "E",
    "",
    "H",
    "A",
    "U",
    "S",
    "",
    "",
    "B",
    "O",
    "O",
    "K",
    "",
    "N",
    "",
    "",
    "",
    "A",
    "",
    "",
    "",
    "",
    "",
    "",
    "I",
    "",
    "",
    "",
    "",
    "",
    "S",
    "",
    "",
    "",
    "",
    "M",
    "A",
    "N",
    "D",
    "I",
    "",
    "",
    "",
    "A",
    ""
  ],
  "words": [
    "0,1,2,3,4",
    "17,30,43,56",
    "26,27,28,29,30",
    "26,39,52,65,78,91,104",
    "104,105,106",
    "54,67,80,93,106",
    "54,55,56",
    "17,18,19,20",
    "6,19,32,45,58,71",
    "71,72,73,74,75,76,77",
    "51,64,77,90,103",
    "49,50,51",
    "61,74,87,100,113,126",
    "126,127,128,129",
    "115,128,141,154,167",
    "108,109,110,111,112,113",
    "98,111,124,137",
    "96,109,122,135,148,161",
    "132,133,134,135",
    "159,160,161,162,163"
  ],
  "questions": [
    "RUNTUH",
    "ANGGOTA ATAU KELOMPOK ABJAD",
    "PEMASUKKAN BARANG DARI LUAR NEGERI",
    "HARRY KANE BERMAIN DI LIGA",
    "KODE UNTUK MENJUMLAHKAN NILAI PADA DATA",
    "KEADAAN SUHU CURAH HUJAN",
    "ORGANISASI INTERNASIONAL YANG BERTUJUAN MEMPERERAT KERJA SAMA MONETER GLOBAL",
    "BUBAR AKHIR CERITA",
    "PELACUR",
    "BERHUBUNGAN DENGAN KEKHASAN SIFAT YANG DIMILIKI OLEH SUATU KELOMPOK",
    "PERMAINAN JUDI",
    "VERY IMPORTANT PERSON",
    "KOTA PELABUHAN UTAMA DI ARAB SAUDI",
    "BERASA KERING KERONGKONGAN DAN INGIN MINUM",
    "MENGHINDARI MAKAN DAN MINUM",
    "DUGA , KIRA",
    "ORANG PERANTARA YANG MENGUSAHAKAN PENJUALAN PERUSAHAAN LAIN",
    "MEREK AC",
    "SEKELOMPOK ORANG PUAK PARTAI GOLONGAN",
    "MEMBERSIKAN TUBU DENGAN AIR DAN SABUN"

  ]
}