{
  "cols": 13,
  "rows": 13,
  "cells": [
    "R",
    "I",
    "C",
    "U",
    "H",
    "",
    "L",
    "",
    "",
    "",
    "",
    "",
    "",
    "",
    "",
    "",
    "",
    "U",
    "D",
    "E",
    "N",
    "G",
    "",
    "",
    "",
    "",
    "I",
    "M",
    "P",
    "O",
    "R",
    "",
    "L",
    "",
    "",
    "",
    "",
    "",
    "",
    "N",
    "",
    "",
    "",
    "U",
    "",
    "A",
    "",
    "",
    "",
    "V",
    "I",
    "P",
    "G",
    "",
    "I",
    "M",
    "F",
    "",
    "N",
    "",
    "",
    "J",
    "",
    "",
    "O",
    "G",
    "",
    "K",
    "",
    "",
    "",
    "G",
    "E",
    "N",
    "E",
    "R",
    "I",
    "K",
    "R",
    "",
    "L",
    "",
    "",
    "",
    "",
    "",
    "",
    "D",
    "",
    "",
    "E",
    "I",
    "",
    "I",
    "",
    "",
    "D",
    "",
    "A",
    "",
    "D",
    "",
    "",
    "R",
    "S",
    "I",
    "M",
    "",
    "J",
    "A",
    "N",
    "G",
    "K",
    "A",
    "",
    "P",
    "",
    "",
    "",
    "",
    "",
    "",
    "I",
    "",
    "E",
    "",
    "H",
    "I",
    "U",
    "",
    "",
    "K",
    "O",
    "B",
    "O",
    "K",
    "",
    "N",
    "",
    "",
    "",
    "C",
    "",
    "",
    "",
    "",
    "",
    "",
    "I",
    "",
    "",
    "",
    "",
    "",
    "A",
    "",
    "",
    "",
    "",
    "M",
    "A",
    "N",
    "D",
    "I",
    "R",
    "I",
    "",
    "T",
    ""
  ],
  "words": [
    "0,1,2,3,4",
    "4,17,30,43,56",
    "26,27,28,29,30",
    "26,39,52,65,78,91,104",
    "104,105,106",
    "54,67,80,93,106",
    "54,55,56",
    "17,18,19,20,21",
    "6,19,32,45,58,71",
    "71,72,73,74,75,76,77",
    "51,64,77,90,103",
    "49,50,51",
    "61,74,87,100,113,126",
    "126,127,128",
    "115,128,141,154,167",
    "108,109,110,111,112,113",
    "98,111,124,137",
    "96,109,122,135,148,161",
    "131,132,133,134,135",
    "159,160,161,162,163,164,165"
  ],
  "questions": [
    "KISRUH",
    "AKSARA",
    "BARANG DARI LUAR NEGRI",
    "SALAH SATU NEGARA EROPA",
    "SURAT IZIN KENDARAAN",
    "TROPIS",
    "ORGANISASI YANG BERTUJUAN MEMPERCEPAT KERJA SAMA MONETER GLOBAL",
    "DASTER",
    "JUAL BELI DENGAN TAWARAN TINGGI",
    "JENIS OBAT",
    "PERMAINAN MENGGUNAKAN KARTU REMI",
    "VERY IMPORTAN VERSION",
    "KOTA PELABUHAN UTAMA ARAB SAUDI",
    "MAMALIA YANG HIDUP DI AIR",
    "RONA WAJA KETIKA SAKIT",
    "UNTUK MEMBUAT LINGKARAN",
    "MATA UANG EGARA ASING",
    "MEREK AC",
    "TEMPAT MENCUCUI TANGAN SEBELUM MAKAN",
    "NAMA BANK"
  ]
}