		{
		  "cols": 13,
		  "rows": 13,
		  "cells": [
			"A",
			"I",
			"R",
			"",
			"",
			"",
			"",
			"",
			"",
			"",
			"",
			"",
			"",
			"",
			"",
			"O",
			"",
			"",
			"",
			"",
			"",
			"",
			"",
			"",
			"",
			"",
			"R",
			"A",
			"K",
			"",
			"",
			"",
			"",
			"",
			"",
			"",
			"",
			"",
			"",
			"",
			"K",
			"",
			"",
			"",
			"",
			"",
			"",
			"",
			"",
			"",
			"",
			"J",
			"",
			"U",
			"S",
			"A",
			"I",
			"",
			"",
			"",
			"",
			"",
			"V",
			"I",
			"A",
			"",
			"",
			"I",
			"",
			"",
			"",
			"",
			"",
			"",
			"",
			"A",
			"",
			"M",
			"",
			"",
			"M",
			"I",
			"L",
			"",
			"W",
			"",
			"B",
			"O",
			"S",
			"",
			"",
			"",
			"",
			"",
			"",
			"A",
			"P",
			"I",
			"",
			"E",
			"",
			"",
			"",
			"",
			"",
			"",
			"",
			"",
			"B",
			"",
			"G",
			"O",
			"L",
			"",
			"",
			"",
			"",
			"",
			"",
			"",
			"",
			"",
			"",
			"",
			"B",
			"",
			"",
			"",
			"",
			"",
			"",
			"",
			"",
			"",
			"",
			"",
			"",
			"R",
			"A",
			"M",
			"",
			"",
			"",
			"",
			"",
			"",
			"",
			"",
			"",
			"",
			"A",
			"",
			"I",
			"",
			"",
			"",
			"",
			"",
			"",
			"",
			"",
			"",
			"",
			"L",
			"",
			"E",
			"",
			"",
			""
		  ],
		  "words": [
			"0,1,2",
			"2,15,28",
			"26,27,28",
			"27,40,53",
			"53,54,55,56",
			"54,67,80",
			"80,81,82",
			"82,95,108",
			"95,96,97",
			"84,97,110",
			"110,111,112",
			"86,99,112",
			"86,87,88",
			"62,75,88",
			"62,63,64",
			"51,64,77",
			"111,124,137,150,163",
			"137,138,139",
			"139,152,165"
		  ],
		  "questions": [
            "DAPAT DIMINUM",
            "PAKAIAN PEREMPUAN",
            "TEMPAT UNTUK MENYIMPAN SESUATU",
            "SAYA",
            "BERAKHIR",
            "SURAT IZIN MENGEMUDI",
            "SATUAN JARAK",
            "LABORATORIUM",
            "PANAS APABILA DISENTUH",
            "RAMBUT TIRUAN",
            "BOLA MASUK KEGAWANG",
            "LONCENG",
            "ATASAN",
            "TEMPAT UNTUK MENARUH BUNGA",
            "MELALUI",
            "PETUNJUK",
            "MENUAL SECARA BESAR BESARAN",
            "RONDOM ACCSES MEMORY",
            "BAHAN MAKANAN DARI TEPUNG TERIGU"

		  ]
		}