{
  "cols": 13,
  "rows": 13,
  "cells": [
    "L",
    "A",
    "N",
    "G",
    "G",
    "E",
    "N",
    "G",
    "",
    "M",
    "A",
    "E",
    "M",
    "",
    "T",
    "",
    "",
    "",
    "",
    "",
    "E",
    "",
    "",
    "",
    "",
    "A",
    "",
    "L",
    "",
    "V",
    "",
    "",
    "",
    "M",
    "E",
    "L",
    "A",
    "T",
    "I",
    "K",
    "E",
    "R",
    "A",
    "",
    "B",
    "",
    "B",
    "",
    "",
    "",
    "",
    "N",
    "",
    "T",
    "",
    "P",
    "",
    "M",
    "",
    "U",
    "",
    "K",
    "",
    "K",
    "",
    "",
    "I",
    "",
    "E",
    "",
    "W",
    "E",
    "L",
    "C",
    "O",
    "M",
    "E",
    "",
    "",
    "K",
    "",
    "",
    "",
    "",
    "N",
    "",
    "",
    "M",
    "",
    "L",
    "",
    "",
    "",
    "",
    "",
    "",
    "",
    "A",
    "",
    "K",
    "E",
    "T",
    "I",
    "K",
    "",
    "L",
    "",
    "",
    "C",
    "",
    "K",
    "",
    "",
    "D",
    "",
    "N",
    "",
    "G",
    "A",
    "N",
    "D",
    "U",
    "M",
    "",
    "N",
    "",
    "I",
    "",
    "C",
    "",
    "",
    "P",
    "",
    "",
    "K",
    "",
    "",
    "I",
    "",
    "A",
    "S",
    "I",
    "N",
    "",
    "A",
    "",
    "B",
    "U",
    "N",
    "G",
    "L",
    "O",
    "N",
    "",
    "",
    "",
    "",
    "R",
    "",
    "",
    "P",
    "",
    "",
    "A",
    "",
    "",
    "",
    "",
    ""
  ],
  "words": [
    "0,1,2,3,4,5,6,7",
	"1,14,27,40,53,66,79",
	"39,40,41,42",
	"29,42,55,68",
	"7,20,33,46,59,72",
	"33,34,35,36,37,38",
	"12,25,38,51",
	"9,10,11,12",
	"70,71,72,73,74,75,76",
	"44,57,70",
	"71,84,97,110",
	"61,74,87,100,113,126,139,152",
	"63,76,89,102,115,128,141",
	"99,100,101,102,103",
    "139,140,141,142",
	"146,147,148,149,150,151,152",
	"124,137,150,163",
	"108,121,134,147,160",
	"117,118,119,120,121,122",
	"105,118,131,144,157"
  ],
  "questions": [
    "KEKAL ABADI DALAM HUBUNGAN",
    "TERDIRI ATAS NOMOR LARI, JALAN, LOMPAT, DAN LEMPAR",
    "SUKU PALING SEMPURNA KELAS BINATANG MENYUSUI",
    "ROKOK YANG MEMILIKI BATRAI",
    "SELALU TIDAK MERASA SENANG",
    "TUMBUHAN PERDA SUKU RUBIACEAE",
    "MELAKUKAN PERMAINAN UNTUK MENYENANGKAN HATI",
    "MEMAKAN SESUATU KATA LAIN",
    "SELAMAT DATANG",
    "BAYERISCHE MOTOREN WARKE",
    "SEDAP LEZAT",
    "PROFESI SESEORANG YANG MEMBUAT TERTAWA BANYAK ORANG",
    "BINATANG MAMALIA YANG MENGUNGGIS",
    "FUNGSI KEYBOARD",
    "BERASA GARAM",
    "KADAL YANG HIDUP DIPOHON YANG DAPAT BERUBAH WARNA",
    "TUMBUHAN PERDU TEGAK DAN TINGGI",
    "DAPAT MEMENUHI KEBUTUHAN SEHARI HARI DINAMAKAN",
    "TUMBUHAN SEPERTI PADI",
    "BERASA INGIN MAKAN"
  ]
}