		{
		  "cols": 13,
		  "rows": 13,
		  "cells": [
			"K",
			"U",
			"R",
			"U",
			"S",
			"",
			"K",
			"L",
			"U",
			"B",
			"",
			"",
			"",
			"A",
			"",
			"",
			"",
			"I",
			"",
			"",
			"U",
			"",
			"O",
			"T",
			"A",
			"K",
			"P",
			"",
			"",
			"",
			"A",
			"N",
			"G",
			"K",
			"A",
			"",
			"",
			"",
			"U",
			"U",
			"",
			"",
			"",
			"O",
			"",
			"",
			"A",
			"",
			"",
			"",
			"",
			"R",
			"R",
			"",
			"",
			"",
			"M",
			"",
			"",
			"K",
			"A",
			"R",
			"I",
			"",
			"A",
			"",
			"L",
			"A",
			"C",
			"I",
			"",
			"",
			"U",
			"",
			"",
			"K",
			"",
			"S",
			"",
			"A",
			"",
			"",
			"",
			"",
			"L",
			"",
			"L",
			"",
			"L",
			"",
			"",
			"",
			"C",
			"",
			"",
			"",
			"",
			"A",
			"",
			"O",
			"",
			"A",
			"",
			"",
			"",
			"T",
			"",
			"B",
			"",
			"",
			"N",
			"",
			"T",
			"A",
			"N",
			"K",
			"",
			"",
			"A",
			"",
			"A",
			"",
			"",
			"G",
			"",
			"E",
			"",
			"",
			"",
			"",
			"",
			"M",
			"",
			"R",
			"",
			"",
			"K",
			"",
			"N",
			"I",
			"S",
			"A",
			"N",
			"L",
			"I",
			"P",
			"A",
			"N",
			"",
			"A",
			"B",
			"G",
			"",
			"",
			"",
			"",
			"",
			"L",
			"",
			"K",
			"",
			"",
			"",
			"",
			"",
			"",
			"",
			"",
			""
		  ],
		  "words": [
		   "0,1,2,3,4",
           "0,13,26,39,52",
           "4,17,30,43,56,69",
           "66,67,68,69",
           "30,31,32,33,34",
           "7,20,33,46,59,72",
           "6,7,8,9",
           "9,12",
           "22,23,24,25",
           "25,38,52,64,77",
           "59,60,61,62",
           "62,75,88,101,114",
           "112,113,114,115",
           "86,99,112,125,138,151",
           "138,139,140,141,142",
           "149,150,151",
           "84,97,110,123,136,149",
           "66,79,92,105,118,131,144,157",
           "143,144,145,146,147",
           "107,120,133,146,159"
		  ],
		  "questions": [
          "Badan Tidak Berisi",
          "Bahan Serbuk Yang Putih Warnanya",
          "Merek Hp China",
          "Kotak Kecil Pada Meja",
          "Kumpulan Nomor",
          "Pemain Mancester United Asal Beligia",
          "Kelompok Atau Grup",
          "Filem Belgia 2010 Yang Disutradarai Oleh Hans Herbots",
          "Alat Berfikir",
          "Kertas Yang Telah Di Cetak Dan Sudah Dilipat",
          "Sayur Gulai Yang Diberi Kunyit Sehingga Kuning Warnanya",
          "Informasi Yang Berupa Bener, Atau Video",
          "Mobil Berlapis Baja Beroda Gigi",
          "Singkatan Dari Lombok Tengah",
          "Tonggak Pendek Yang Di Tanam Di Atsa Kubur",
          "Anak Baru Gede",
          "Barang Yang Susah Dicari Dan Bernilai",
          "Susu Ibu Hamil",
          "Binatang Berbisa Bertubuh Pipih",
          "Gedung Tentara"

		  ]
		}