	{
	  "cols": 13,
	  "rows": 13,
	  "cells": [
		"R",
		"A",
		"K",
		"U",
		"S",
		"",
		"P",
		"",
		"",
		"",
		"",
		"",
		"",
		"",
		"",
		"O",
		"",
		"",
		"S",
		"U",
		"L",
		"A",
		"P",
		"",
		"",
		"",
		"",
		"",
		"P",
		"",
		"",
		"",
		"A",
		"",
		"",
		"A",
		"",
		"",
		"T",
		"D",
		"A",
		"I",
		"H",
		"A",
		"T",
		"S",
		"U",
		"",
		"J",
		"A",
		"J",
		"A",
		"",
		"G",
		"",
		"",
		"",
		"",
		"",
		"",
		"",
		"A",
		"",
		"",
		"R",
		"P",
		"R",
		"O",
		"U",
		"D",
		"",
		"S",
		"N",
		"A",
		"K",
		"E",
		"",
		"Z",
		"",
		"E",
		"",
		"",
		"",
		"",
		"A",
		"",
		"",
		"",
		"",
		"",
		"A",
		"U",
		"S",
		"I",
		"L",
		"",
		"",
		"K",
		"E",
		"N",
		"E",
		"K",
		"",
		"N",
		"",
		"I",
		"",
		"",
		"",
		"",
		"I",
		"",
		"",
		"",
		"U",
		"",
		"",
		"",
		"F",
		"L",
		"I",
		"G",
		"H",
		"T",
		"",
		"",
		"",
		"J",
		"I",
		"N",
		"",
		"",
		"",
		"",
		"I",
		"",
		"",
		"",
		"",
		"",
		"A",
		"",
		"",
		"",
		"",
		"",
		"",
		"G",
		"",
		"",
		"M",
		"S",
		"A",
		"N",
		"",
		"",
		"",
		"P",
		"U",
		"S",
		"I",
		"N",
		"G",
		"",
		"",
		"",
		"G",
		"",
		""
	  ],
	  "words": [
		"0,1,2,3,4",
		"2,15,28,41",
		"39,40,41,42,43,44,45,46",
		"40,53,66,79,92,105,118",
		"65,66,67,68,69",
		"91,92,93,94",
		"118,119,120,121,122,123",
		"121,134,147,160",
		"157,158,159,160,161,162",
		"6,19,32,45",
		"18,19,20,21,22",
		"22,35,48,61,74",
		"48,49,50,51",
		"38,51,64,77,90,103",
		"71,72,73,73,75",
		"71,84,97,110,123",
		"97,98,99,100,101",
		"101,114,127,140,153,166",
		"127,128,129",
		"150,151,152,153"
	  ],
	  "questions": [
        "SERAKAH",
        "NESCAFE",
        "MEREK MOBIL",
        "BERNAFSU MENYERANG",
        "BANGGA",
        "JAHIL",
        "PENERBANGAN",
        "YANG DIDALAM MULUT",
        "PUYENG",
        "SENANG DENGAN KARYA SENDIRI",
        "MAGIC",
        "DIMINTA OLEH PEREMAN",
        "MIHARAJA",
        "FILEM ANIMASI DISNEY",
        "ULAR",
        "DIPUKUL",
        "YANG MEMBANTU SUPIR ANGKOT",
        "SENJATA TRADISIONAL JAWA",
        "MAKHLUK GAIB",
        "MULTI SERVICES ACCESS NODE"
	  ]
	}