		{
		  "cols": 13,
		  "rows": 13,
		  "cells": [
			"M",
			"E",
			"R",
			"D",
			"E",
			"K",
			"A",
			"",
			"",
			"",
			"",
			"",
			"",
			"",
			"P",
			"",
			"",
			"",
			"",
			"",
			"",
			"",
			"",
			"",
			"",
			"",
			"",
			"I",
			"",
			"",
			"G",
			"E",
			"R",
			"I",
			"L",
			"Y",
			"A",
			"",
			"T",
			"U",
			"G",
			"M",
			"",
			"I",
			"",
			"I",
			"",
			"",
			"A",
			"",
			"",
			"U",
			"",
			"O",
			"",
			"",
			"A",
			"",
			"",
			"",
			"",
			"I",
			"",
			"",
			"J",
			"U",
			"N",
			"J",
			"U",
			"T",
			"",
			"",
			"L",
			"",
			"",
			"",
			"",
			"U",
			"",
			"",
			"A",
			"",
			"",
			"J",
			"A",
			"U",
			"Z",
			"A",
			"",
			"",
			"H",
			"B",
			"A",
			"K",
			"A",
			"",
			"A",
			"",
			"L",
			"",
			"",
			"",
			"",
			"B",
			"",
			"",
			"A",
			"",
			"P",
			"U",
			"P",
			"U",
			"T",
			"A",
			"N",
			"",
			"E",
			"",
			"",
			"R",
			"",
			"",
			"H",
			"",
			"H",
			"",
			"S",
			"",
			"",
			"L",
			"A",
			"N",
			"T",
			"A",
			"R",
			"A",
			"",
			"",
			"",
			"W",
			"I",
			"T",
			"A",
			"",
			"",
			"A",
			"",
			"",
			"R",
			"U",
			"S",
			"I",
			"A",
			"",
			"",
			"S",
			"",
			"",
			"",
			"",
			"",
			"",
			"",
			"",
			"",
			"",
			"",
			"",
			""
		  ],
		  "words": [
			"0,1,2,3,4,5,6",
			"1,14,27,40,53,66",
			"39,40,41",
			"65,66,67,68,69",
			"67,80,93,106,119,132,145",
			"91,92,93,94",
			"130,131,132,133,134,135",
			"83,96,109,122,135,148",
			"108,109,110,111,112,113,114",
			"113,126,139,152",
			"83,84,85,86,87",
			"30,43,56,69",
			"30,31,32,33,34,45,36",
			"35,48,61",
			"148,149,150,151,152",
			"72,85,98,111,124",
			"139,140,141,142",
			"38,51,64,77,90,103,116,129,142,155",
			"32,45"
		  ],
		  "questions": [
            "Pekik Perjuangan Kita",
            "Orang Yang Tidak Memiliki Gagasan Baru",
            "Universitas Di DIY",
            "Bungkusan Kain Segiempat",
            "Ibu Kota Indonesia",
            "Antonim Fana",
            "Kantor Berita Indonesia",
            "Intan",
            "Perang Kemerdekaan Di Bali",
            "Kuda Sanskerta",
            "Gemini",
            "Tekun",
            "Strategi Perang Indonesia",
            "Yayasan Administrasi Indonesia",
            "Negara Terluas Didunia",
            "Hancur Menjadi Kecil Kecil",
            "Singkatan Waktu Indonesia Bagian Tengah",
            "Jumlah Bulu Sayap Burung Garuda Pancasila",
            "Republik Indonesia"

		  ]
		}