	{
	  "cols": 13,
	  "rows": 13,
	  "cells": [
		"A",
		"M",
		"A",
		"N",
		"D",
		"A",
		"",
		"",
		"T",
		"",
		"M",
		"",
		"N",
		"N",
		"",
		"",
		"Y",
		"",
		"",
		"",
		"L",
		"O",
		"N",
		"E",
		"L",
		"Y",
		"O",
		"P",
		"P",
		"O",
		"",
		"",
		"",
		"",
		"N",
		"",
		"T",
		"",
		"A",
		"A",
		"",
		"",
		"N",
		"U",
		"N",
		"U",
		"N",
		"G",
		"",
		"E",
		"",
		"N",
		"",
		"",
		"",
		"Y",
		"",
		"",
		"",
		"",
		"S",
		"T",
		"O",
		"R",
		"Y",
		"E",
		"G",
		"R",
		"A",
		"N",
		"G",
		"",
		"",
		"I",
		"",
		"R",
		"",
		"I",
		"K",
		"",
		"",
		"",
		"",
		"",
		"S",
		"U",
		"S",
		"U",
		"",
		"",
		"",
		"S",
		"I",
		"D",
		"I",
		"K",
		"",
		"",
		"",
		"",
		"M",
		"",
		"",
		"I",
		"T",
		"",
		"E",
		"",
		"",
		"",
		"",
		"",
		"",
		"R",
		"",
		"",
		"N",
		"A",
		"M",
		"N",
		"E",
		"S",
		"I",
		"A",
		"",
		"",
		"A",
		"",
		"",
		"J",
		"S",
		"",
		"D",
		"",
		"",
		"",
		"",
		"",
		"",
		"H",
		"A",
		"J",
		"I",
		"I",
		"",
		"A",
		"N",
		"E",
		"K",
		"A",
		"",
		"",
		"",
		"",
		"",
		"L",
		"",
		"",
		"",
		"",
		"",
		"",
		"",
		"",
		"",
		"",
		"",
		"",
		""
	  ],
	  "words": [
		"0,13,26,39",
		"0,1,2,3,4,5",
		"26,27,28,29",
		"3,16,29,42,55,68",
		"65,66,67,68,69,70",
		"65,78,91,104,117,130,143",
		"91,92,93,94,95",
		"117,118,119,120,121,122,123",
		"93,106,119,132,145",
		"145,146,147,148,149",
		"42,43,44,45,46,47",
		"8,21,34,47,60,73,86",
		"20,21,22,23,24,25",
		"10,23,36,49,62,75",
		"12,25,38,51,64,71",
		"60,61,62,63,64",
		"84,85,86,87",
		"87,100,113,126,139",
		"139,140,141,142",
		"103,116,129,142,155"
	  ],
	  "questions": [
        "Nama Hewan",
        "Merek Kue Brownies",
        "Merek HP",
        "Panggilan Untuk Wanita Yang Sudah Bersuami",
        "Permainan Tradisional Dari Bambu",
        "Jenis Narkoba",
        "Yang Ada Di Jari",
        "Gangguan Ingatan",
        "Hukuman Yang Melibatkan Uang Yang Harus Dibayar",
        "Ragam - Macam Macam",
        "Nama Pelawak Wanita",
        "Tongkat Yang Digunakan Untuk Foto Selfie",
        "Kesepian (Bahasa Inggris)",
        "Benda Angkasa Yang Masuk Kedalam Atmosfir Dan Terbakar Habis",
        "Berdendang",
        "Cerita (Bahasa Inggris)",
        "Indomilek",
        "Salah Satu Kegiatan Ibadah Agama Islam",
        "Rukun Islam Yang Ke-5",
        "Kitab Suci Perjanjian Baru"
	  ]
	}