{
  "cols": 13,
  "rows": 13,
  "cells": [
    "J",
    "E",
    "R",
    "U",
    "K",
    "",
    "",
    "",
    "",
    "",
    "",
    "",
    "",
    "",
    "",
    "",
    "",
    "U",
    "A",
    "N",
    "G",
    "",
    "",
    "N",
    "",
    "",
    "",
    "",
    "",
    "",
    "D",
    "",
    "",
    "",
    "",
    "T",
    "A",
    "I",
    "L",
    "",
    "P",
    "E",
    "L",
    "A",
    "N",
    "G",
    "I",
    "",
    "",
    "F",
    "",
    "U",
    "",
    "A",
    "",
    "U",
    "",
    "",
    "",
    "L",
    "U",
    "A",
    "S",
    "",
    "M",
    "",
    "Y",
    "",
    "C",
    "",
    "",
    "",
    "K",
    "",
    "",
    "U",
    "",
    "P",
    "",
    "U",
    "",
    "U",
    "Y",
    "A",
    "",
    "",
    "",
    "",
    "",
    "",
    "U",
    "",
    "N",
    "",
    "",
    "",
    "P",
    "A",
    "U",
    "D",
    "",
    "",
    "P",
    "R",
    "",
    "G",
    "",
    "",
    "",
    "A",
    "",
    "L",
    "",
    "",
    "",
    "O",
    "",
    "",
    "",
    "",
    "",
    "",
    "",
    "",
    "E",
    "",
    "I",
    "",
    "C",
    "",
    "",
    "",
    "",
    "",
    "",
    "B",
    "O",
    "T",
    "O",
    "L",
    "",
    "O",
    "",
    "",
    "",
    "",
    "",
    "",
    "",
    "",
    "",
    "",
    "M",
    "",
    "N",
    "",
    "",
    "",
    "",
    "",
    "S",
    "E",
    "P",
    "A",
    "T",
    "U",
    "",
    "G",
    ""
  ],
  "words": [
    "0,1,2,3,4",
    "4,17,30,43",
    "17,18,19,20",
    "40,41,42,43,44,45,46",
    "40,53,66,79,92,105",
    "42,55,68,81",
    "81,82,83",
    "83,96,109",
    "96,97,98,99",
    "98,111,124,137",
    "135,136,137,138,139",
    "126,139,152,165",
    "160,161,162,163,164,165",
    "46,59,72",
    "59,60,61,62",
    "23,36,49,62,75",
    "35,36,37,38",
    "38,51,64,77,90,103",
    "102,103",
    "102,115,128,141,154,167"
  ],
  "questions": [
    "Buah Bervitamin C",
    "Hewan Penarik Delman",
    "Alat Pembayaran",
    "Muncul Setelah Hujan",
    "Sedia …. Sebelum Hujan",
    "Jenaka ??",
    "… Kuya (Artis)",
    "Kata Tanya  ???",
    "Pendidikan Anak Usia Dini",
    "Rajin ??",
    "Tempat Minum",
    "Belajar Dapat Menghasilkan",
    "Alas Kaki",
    "Indonesia Lawak Klub",
    "Tidak Sempit",
    "Keinginan Yang Kuat",
    "Bahasa Inggris Ekor",
    "Tanah Yang Becek",
    "Pekerjaan Rumah (Siswa)",
    "Makhluk Halus"
  ]
}