	{
	  "cols": 13,
	  "rows": 13,
	  "cells": [
		"D",
		"E",
		"R",
		"M",
		"A",
		"G",
		"A",
		"",
		"",
		"",
		"",
		"",
		"",
		"I",
		"",
		"U",
		"",
		"U",
		"",
		"K",
		"U",
		"M",
		"U",
		"R",
		"",
		"",
		"G",
		"A",
		"S",
		"",
		"D",
		"",
		"B",
		"",
		"",
		"",
		"P",
		"S",
		"I",
		"R",
		"",
		"A",
		"",
		"I",
		"",
		"A",
		"",
		"",
		"",
		"",
		"",
		"",
		"A",
		"",
		"K",
		"",
		"T",
		"U",
		"R",
		"N",
		"A",
		"M",
		"E",
		"N",
		"",
		"H",
		"",
		"",
		"",
		"",
		"",
		"",
		"",
		"W",
		"",
		"",
		"",
		"",
		"A",
		"S",
		"U",
		"H",
		"",
		"",
		"",
		"",
		"E",
		"",
		"",
		"B",
		"",
		"Y",
		"",
		"",
		"",
		"",
		"",
		"",
		"",
		"T",
		"E",
		"L",
		"E",
		"S",
		"U",
		"U",
		"D",
		"",
		"L",
		"",
		"",
		"",
		"",
		"",
		"",
		"B",
		"",
		"",
		"N",
		"",
		"",
		"E",
		"",
		"",
		"T",
		"",
		"",
		"",
		"E",
		"",
		"",
		"D",
		"",
		"",
		"L",
		"",
		"",
		"A",
		"S",
		"B",
		"A",
		"K",
		"",
		"",
		"O",
		"N",
		"T",
		"A",
		"",
		"",
		"N",
		"",
		"",
		"",
		"",
		"",
		"",
		"",
		"",
		"",
		"P",
		"",
		"",
		"K",
		"",
		"",
		"",
		"",
		""
	  ],
	  "words": [
		"0,13,26,39,52,65,78,91,104",
		"0,1,2,3,4,5,6",
		"26,27,28",
		"78,79,80,81",
		"104,105,106",
		"105,118,131,144",
		"144,145,146,147",
		"108,121,134,147,160",
		"2,15,28,41,54",
		"4,17,30,43,56",
		"6,19,32,45,58",
		"19,20,21,22,23",
		"23,36",
		"36,37,38",
		"56,57,58,59,60,61,62,63",
		"60,73,86,99",
		"99,100,101,102,103",
		"89,102,115,128,141",
		"137,138,139,140,141",
		"124,137,150,163"
	  ],
	  "questions": [
        "Ucapan Umur Panjang Untuk Indonesia Saat Memperingati Hari Kemerdekaan",
        "Tembok Penahan Ombak Dipelabuhan",
        "Kompor",
        "Menjaga/Membimbing Anak Kecil",
        "Undang Undang Dasar",
        "CTRL + Z",
        "Hewan Yang Hidup Dipadang Pasir",
        "Tidur Pulas",
        "Barang Tidak Layak Pakai",
        "Pemeriksaan Pembukaan Keuangan Perusahaan",
        "Besar",
        "Memasukan Air Dan Menggerak Gerakkannya Didalam Mulut",
        "Mata Uang Negara Indonesia",
        "Partai Solidaritas Indonesia",
        "Pertandingan Yang Diikuti Oleh Beberapa Regu/Tim",
        "Tidak Mudah Rusak",
        "Bahasa Jawa Basah",
        "Hewan Darat Bertelur Bisa Berenang",
        "Tempat Membuang Abu Rokok",
        "Kendaraan Lapis Baja"
	  ]
	}