	{
	  "cols": 13,
	  "rows": 13,
	  "cells": [
		"A",
		"B",
		"B",
		"A",
		"",
		"",
		"",
		"I",
		"",
		"",
		"",
		"",
		"",
		"L",
		"",
		"U",
		"",
		"",
		"K",
		"E",
		"P",
		"I",
		"T",
		"I",
		"N",
		"G",
		"U",
		"",
		"K",
		"",
		"",
		"A",
		"",
		"A",
		"",
		"",
		"T",
		"",
		"U",
		"M",
		"E",
		"T",
		"E",
		"",
		"R",
		"",
		"R",
		"E",
		"M",
		"A",
		"J",
		"A",
		"N",
		"",
		"I",
		"",
		"",
		"A",
		"",
		"",
		"",
		"",
		"L",
		"",
		"",
		"U",
		"",
		"",
		"",
		"",
		"T",
		"",
		"H",
		"A",
		"S",
		"I",
		"L",
		"",
		"S",
		"A",
		"N",
		"G",
		"K",
		"E",
		"T",
		"A",
		"",
		"",
		"A",
		"",
		"",
		"",
		"",
		"",
		"E",
		"",
		"",
		"",
		"D",
		"",
		"",
		"",
		"",
		"",
		"",
		"",
		"",
		"L",
		"",
		"",
		"",
		"I",
		"N",
		"D",
		"U",
		"N",
		"G",
		"G",
		"O",
		"K",
		"I",
		"L",
		"",
		"",
		"R",
		"",
		"",
		"D",
		"",
		"U",
		"",
		"",
		"",
		"G",
		"",
		"",
		"S",
		"I",
		"G",
		"M",
		"A",
		"",
		"D",
		"N",
		"O",
		"T",
		"A",
		"S",
		"I",
		"",
		"N",
		"",
		"",
		"N",
		"",
		"E",
		"",
		"",
		"",
		"",
		"",
		"",
		"",
		"",
		"",
		"",
		"G",
		"",
		"G"
	  ],
	  "words": [
		"0,13,26,39,52,65,78",
		"0,1,2,3",
		"39,40,41,42",
		"2,15,28,41,54",
		"78,79,80,81,82,83,84,85",
		"72,85,98,111,124,137,150",
		"111,112,113,114,115,116",
		"136,137,138,139,140",
		"114,127,140,153,166",
		"116,129,142,155,168",
		"18,31,44,57,70,83",
		"18,19,20,21,22,23,24,25",
		"7,20,33,46",
		"46,47,48,49,50,51",
		"25,38,51",
		"23,36,49,62,75,88",
        "72,73,74,75,76",
        "81,94,107,120,133,146",
        "117,118,119,120,121",
        "143,144,145,146,147,148"
	  ],
	  "questions": [
        "Orang Yang Telah Mengikuti Atau Tamat Dari Suatu Sekolah/Perrguruan Tinggi",
        "Kelompok Musik Pop Internasional Tahun 70an Yang Mempopulerkan Lagu MAMMA MIA",
        "Biji Jambu Monyet",
        "Salah Satu Judul Lagu Virgoun",
        "Pertengkaran, Pertikaian, Perselisihan",
        "Semua Orang Yang Hadir",
        "Induk",
        "Huruf Ke 18 Dalam Abjad Yunani Berlambang Ʃ",
        "Salah Satu Hewan Laut Makanan Favorit Semua Orang",
        "Makanan Khas Yogyakarta",
        "Salah Satu Olah Raga Ilmu Bela Diri",
        "Crab",
        "Saudara Dari Istri KK Saya",
        "Masa Mulai Dewasa",
        "Cave (Bahasa Indonesai)",
        "Pasta Carbonara Makana Khas Yang Berasal Dari",
        "..... Kerja Keras Yang Mengahsilkan Kepuasan Tersendiri",
        "Merek Balsem",
        "Ungkapan Yang Menyatakan Kalo Elo Keren Bingit (Bahasa Gaul)",
        "Sistem Penulisan Karya Musik Dimana Nada Dilambangkan Oleh NOT"
	  ]
	}