	{
	  "cols": 13,
	  "rows": 13,
	  "cells": [
		"S",
		"E",
		"M",
		"E",
		"N",
		"J",
		"A",
		"K",
		"",
		"U",
		"",
		"",
		"U",
		"",
		"",
		"I",
		"",
		"",
		"",
		"",
		"O",
		"",
		"L",
		"A",
		"M",
		"P",
		"I",
		"",
		"Y",
		"",
		"",
		"G",
		"A",
		"N",
		"J",
		"A",
		"",
		"",
		"A",
		"T",
		"",
		"A",
		"",
		"",
		"",
		"",
		"D",
		"",
		"M",
		"",
		"",
		"H",
		"A",
		"",
		"K",
		"",
		"O",
		"R",
		"D",
		"E",
		"",
		"A",
		"",
		"S",
		"",
		"L",
		"E",
		"O",
		"",
		"",
		"E",
		"",
		"",
		"",
		"",
		"L",
		"E",
		"E",
		"I",
		"",
		"",
		"E",
		"K",
		"S",
		"T",
		"R",
		"A",
		"",
		"",
		"D",
		"",
		"A",
		"",
		"",
		"",
		"",
		"T",
		"",
		"",
		"",
		"",
		"",
		"E",
		"",
		"",
		"",
		"",
		"",
		"K",
		"U",
		"N",
		"G",
		"F",
		"U",
		"",
		"K",
		"",
		"",
		"",
		"",
		"",
		"",
		"",
		"",
		"E",
		"",
		"",
		"",
		"A",
		"",
		"",
		"",
		"R",
		"",
		"",
		"J",
		"E",
		"N",
		"A",
		"Z",
		"A",
		"H",
		"",
		"",
		"",
		"I",
		"",
		"R",
		"",
		"",
		"T",
		"",
		"",
		"",
		"",
		"",
		"",
		"M",
		"A",
		"R",
		"T",
		"A",
		"B",
		"A",
		"K",
		"",
		"",
		"",
		""
	  ],
	  "words": [
		"0,1,2,3,4,5,6,7",
		"7,20,33,46,59",
		"31,32,33,34,35",
		"9,22,35,48,61",
		"22,23,24,25",
		"12,25,38,51",
		"56,57,58,59",
		"57,70,83,96,109",
		"81,82,83,84,85,86",
		"108,109,110,111,112,113",
		"111,124,137,150,163",
		"135,136,137,138,139,140,141",
		"63,76,89,102,115,128,141",
		"75,76,77",
		"2,15,28,41,54,67",
		"65,66,67",
		"26,39,52,65,78,91",
		"157,158,159,160,161,162,163,164",
		"147,160",
		"132,145,158"
	  ],
	  "questions": [
        "Sejak",
        "Sanggul",
        "Narkoba",
        "Orang Yang Ahli Dalam Agama Islam",
        "Bahasa Inggris Lampu",
        "Gaji",
        "... Baru (11 Maret 1966 - 20 Mei 1998)",
        "Berkat, Doa",
        "Tambahan, Bonus",
        "Salah Satu Seni Bela Diri",
        "Lonceng Besar Yang Biasanya Dipasang Dimenara Greja",
        "Tubuh Orang Yang Telah Meninggal",
        "Pemberian Sesuatu Kepada Fakir Miskin",
        ".... MIN-HO",
        "Merek Magiccom",
        "Nama Zodiak",
        "Salah Satu Negara Eropa",
        "Makanan Manis Yang Biasanya Berisi Coklat Kacang Atau Keju",
        "Retweet",
        "Gembira"
	  ]
	}