	{
	  "cols": 13,
	  "rows": 13,
	  "cells": [
		"D",
		"A",
		"M",
		"B",
		"A",
		"",
		"",
		"",
		"",
		"",
		"",
		"",
		"",
		"I",
		"",
		"",
		"U",
		"",
		"",
		"P",
		"",
		"",
		"C",
		"A",
		"K",
		"",
		"A",
		"",
		"",
		"M",
		"O",
		"L",
		"U",
		"S",
		"K",
		"A",
		"",
		"",
		"",
		"M",
		"",
		"",
		"B",
		"",
		"",
		"N",
		"",
		"",
		"P",
		"",
		"T",
		"",
		"",
		"P",
		"R",
		"U",
		"R",
		"I",
		"G",
		"O",
		"",
		"U",
		"",
		"L",
		"",
		"U",
		"",
		"",
		"",
		"",
		"",
		"G",
		"",
		"",
		"N",
		"O",
		"N",
		"A",
		"N",
		"O",
		"K",
		"E",
		"N",
		"",
		"U",
		"",
		"",
		"G",
		"",
		"",
		"K",
		"T",
		"",
		"I",
		"",
		"",
		"",
		"N",
		"",
		"",
		"",
		"",
		"",
		"T",
		"U",
		"",
		"N",
		"I",
		"Y",
		"A",
		"G",
		"A",
		"",
		"",
		"",
		"",
		"I",
		"N",
		"",
		"E",
		"",
		"",
		"",
		"",
		"R",
		"U",
		"G",
		"I",
		"",
		"F",
		"G",
		"A",
		"R",
		"A",
		"N",
		"G",
		"",
		"A",
		"",
		"",
		"",
		"",
		"",
		"",
		"",
		"J",
		"",
		"",
		"",
		"",
		"L",
		"O",
		"G",
		"I",
		"N",
		"",
		"",
		"N",
		"A",
		"B",
		"A",
		"T",
		"I",
		"",
		"",
		"",
		"",
		"",
		""
	  ],
	  "words": [
		"0,1,2,3,4",
		"0,13,26,39",
		"3,16,29,42,55",
		"29,30,31,32,33,34,35",
		"53,54,55,56,57,58,59",
		"19,32,45,58,71,84,97,110",
		"22,35,48,61,74,87",
		"22,23,24",
		"74,75,76,77",
		"50,63,76",
		"77,90,103,116,129",
		"106,107,108,109,110,111",
		"111,124,137,150",
		"124,125,126,127",
		"150,151,152,153,154",
		"80,93,106,119,132,145,158",
		"78,79,80,81,82",
		"65,78,91,104,117,130",
		"130,131,132,133,134,135",
		"157,158,159,160,161,162"
	  ],
	  "questions": [
        "SANGAT MENGINGINKAN",
        "CILENT",
        "YANG MEMBUAT MASAKAN MEMILIKI RASA",
        "HEWAN BERTUBUH LUNAK",
        "PENYAKIT KULIT KRONIS DENGAN GEJALA TIMBULNYA BINTIL-BINTIL DAN RASA GATAL YANG LUAR BIASA",
        "BAGIAN TUBUH YANG BAIK DAN NYAMAN UNTUK BERSANDAR",
        "NAMA SERANGGA",
        "… LONTONG (NAMA PELAWAK)",
        "SEBUTAN UNTUK PEREMPUAN ATAU WANITA YANG BELUM MENIKAH",
        "TAMBAHAN LEMBARAN NEGARA",
        "KALIMAT … (KALIMAT YANG SUBJEKNYA MELAKUKAN PERKERJAAN ATAU PERBUATAN)",
        "PENABUH GAMELAN",
        "RINTANGAN",
        "UNTUNG (ANTONIM)",
        "SESI DI DALAM WEBSITE FACEBOOK DIMANA KITA MEMASUKKAN USERNAME DAN PASSWORD",
        "KEMAMPUAN KERJA",
        "TAS TRADISIONAL DARI PAPUA YANG TERBUAT DARI SERAT KAYU",
        "… ANGSA (SALAH SATU TOKOH DALAM CERITA DONALD BEBEK YANG SELALU BERUNTUNG)",
        "GALAK, GANAS",
        "MEREK WAFER"
  	  ]
	}