{
  "cols": 13,
  "rows": 13,
  "cells": [
    "O",
    "B",
    "O",
    "R",
    "",
    "L",
    "",
    "G",
    "",
    "",
    "",
    "A",
    "",
    "",
    "U",
    "",
    "",
    "K",
    "E",
    "D",
    "O",
    "N",
    "D",
    "O",
    "N",
    "G",
    "",
    "B",
    "N",
    "I",
    "",
    "O",
    "",
    "N",
    "",
    "",
    "",
    "T",
    "",
    "",
    "U",
    "",
    "",
    "",
    "",
    "",
    "D",
    "",
    "",
    "",
    "I",
    "",
    "",
    "K",
    "O",
    "T",
    "A",
    "K",
    "",
    "R",
    "",
    "",
    "",
    "K",
    "",
    "",
    "",
    "",
    "U",
    "",
    "E",
    "",
    "O",
    "",
    "",
    "",
    "",
    "",
    "",
    "D",
    "",
    "K",
    "",
    "C",
    "",
    "N",
    "I",
    "M",
    "",
    "",
    "",
    "B",
    "E",
    "L",
    "A",
    "L",
    "A",
    "N",
    "G",
    "",
    "",
    "",
    "",
    "",
    "",
    "L",
    "",
    "R",
    "",
    "M",
    "",
    "",
    "M",
    "I",
    "T",
    "O",
    "S",
    "",
    "A",
    "",
    "",
    "",
    "A",
    "",
    "",
    "",
    "",
    "I",
    "",
    "U",
    "",
    "P",
    "",
    "",
    "",
    "T",
    "",
    "D",
    "O",
    "K",
    "T",
    "E",
    "R",
    "S",
    "A",
    "P",
    "U",
    "",
    "A",
    "",
    "U",
    "",
    "",
    "I",
    "",
    "I",
    "",
    "N",
    "",
    "",
    "I",
    "N",
    "C",
    "A",
    "R",
    "",
    "K",
    "",
    "P"
  ],
  "words": [
    "0,1,2,3",
    "1,14,27,40,53",
    "27,28,29",
    "53,54,55,56,57",
    "55,68,81,94,107",
    "57,70,83,96,109,122,135,148,161",
    "91,92,93,94,95,96,97,98",
    "79,92,105,118,131,144,157",
    "143,144,145,146",
    "160,161,162,163,164",
    "137,150,163",
    "137,138,139,140,141,142",
    "114,127,140,153,166",
    "112,113,114,115,116",
    "116,129,142,155,168",
    "7,20,33,46,59,72,85,98",
    "17,18,19,20,21,22,23,24,25",
    "5,18,31",
    "85,86,87",
    "11,24,37,50,63"
  ],
  "questions": [
    "NAMA BENDA YANG DIBAKAR UJUNGNYA MENJADI SUMBER CAHAYA",
    "JENIS OBAT SELAIN KAPSUL",
    "NAMA BANK",
    "RUBIK BERBNETUK",
    "BARTER",
    "TEMPAT MEMBUAT KTP",
    "BAGIAN DARI SERANGGA",
    "4 * 2",
    "ALAT PEMBERSIH RUANGAN",
    "TARGET",
    "TWO",
    "YANG MENGOBATI PASIEN",
    "BERHENTI TANDA BACA",
    "CERITA YANG TIDAK ADA SUMBERNYA",
    "EMBAH PENCIPTA LAGU TAK GENDONG",
    "RAMBUT PANJANG YANG DIMILIKI PRIA",
    "BIJINYA KASAR BUAH APAKAH ITU",
    "PRIMBON NAMA ZODIAK",
    "NO IDENTITAS KEPENDUDUKAN",
    "BARANG ZAMAN LAMPAU"

  ]
  }