		{
		  "cols": 13,
		  "rows": 13,
		  "cells": [
			"M",
			"E",
			"K",
			"A",
			"R",
			"",
			"",
			"",
			"",
			"",
			"",
			"B",
			"",
			"U",
			"",
			"I",
			"",
			"A",
			"M",
			"A",
			"T",
			"",
			"",
			"",
			"I",
			"",
			"A",
			"",
			"R",
			"I",
			"P",
			"",
			"",
			"",
			"",
			"",
			"",
			"N",
			"",
			"R",
			"",
			"I",
			"",
			"O",
			"",
			"",
			"",
			"",
			"",
			"",
			"T",
			"",
			"I",
			"",
			"",
			"",
			"R",
			"A",
			"J",
			"A",
			"W",
			"A",
			"L",
			"I",
			"",
			"K",
			"",
			"I",
			"",
			"",
			"",
			"",
			"C",
			"",
			"D",
			"",
			"T",
			"",
			"H",
			"U",
			"N",
			"U",
			"S",
			"",
			"R",
			"A",
			"Z",
			"I",
			"A",
			"",
			"",
			"",
			"",
			"T",
			"",
			"",
			"S",
			"",
			"K",
			"",
			"P",
			"",
			"",
			"",
			"P",
			"R",
			"E",
			"M",
			"I",
			"U",
			"M",
			"",
			"P",
			"A",
			"U",
			"S",
			"E",
			"",
			"",
			"R",
			"",
			"",
			"C",
			"",
			"",
			"",
			"T",
			"",
			"H",
			"",
			"",
			"",
			"N",
			"",
			"",
			"I",
			"",
			"T",
			"W",
			"I",
			"C",
			"E",
			"",
			"",
			"",
			"",
			"",
			"",
			"",
			"",
			"N",
			"",
			"",
			"",
			"",
			"",
			"A",
			"S",
			"P",
			"I",
			"R",
			"A",
			"S",
			"I",
			"",
			"",
			"",
			"",
			""
		  ],
		  "words": [
			"0,1,2,3,4",
			"4,17,30,43,56",
			"2,15,28,41",
			"28,29,30",
			"56,57,58,59,60,61,62,63",
			"0,13,26,39,52,65,78",
			"78,79,80,81,82",
			"67,80,93,106,119,132",
			"104,105,106,107,108,109,110",
			"96,109,122,135",
			"17,18,19,20",
			"11,24,37,50,63,76",
			"59,72,85,98",
			"61,74,87,100,113,126,139",
			"84,85,86,87,88",
			"112,113,114,115,116",
			"115,128,141",
			"137,138,139,140,141",
			"137,150,163",
			"156,157,158,159,160,161,162,163"
		  ],
		  "questions": [
		  "MULAI BERKEMBANG",
          "LAPORAN RESMI",
          "KIDAL",
          "MENINGGAL DUNIA",
          "BURUNG ELANG BESAR",
          "PENULIS SEJARAH",
          "MENCABUT KRIS DARI SARUNGNYA",
          "DALAM LINGKUNGAN SENDIRI",
          "BAYARAN KEPADA ASURANSI",
          "BEBAS DARI DOSA",
          "TERLALU",
          "PENYAKIT BINTIL DI KELOPAK MATA",
          "PILIHAN YANG TIDAK DIBATASI ATURAN",
          "GELAR RAJA MUDA",
          "PENANGKAPAN BERAMAI RAMAI OLEH PETUGAS",
          "ISTIRAHAT SEJENAK",
          "DIA PEREMPUAN",
          "GIRL BAND K-POP DARI KOREA SELATAN",
          "ANGKATAN DARAT",
          "HARAPAN UNTUK MENCAPAI TUJUAN"

		  ]
		}